INDEX VERSION 1.127+/Users/deekshithmayanna/Desktop/Java/workspace/DataStruc/.metadata/.plugins/org.eclipse.jdt.core
3154671692.index
3815867860.index
726174367.index
2632100818.index
2749866058.index
2066437841.index
4065824982.index
3161724822.index
2073477615.index
2338264938.index
3484463055.index
1986771229.index
2007229926.index
1224561148.index
1293248435.index
2152457367.index
1830275385.index
1724023767.index
1732821889.index
2073360262.index
4290670224.index
3525238218.index
4243307156.index
3822794603.index
3472454467.index
3097338534.index
2420668987.index
4040096875.index
423665739.index
2396383535.index
248639371.index
2871385577.index
3769628184.index
687479153.index
