<?xml version="1.0" encoding="UTF-8"?>
<session version="1.0">
<refactoring comment="Delete resource &apos;HibernateJavaBrains&apos;" deleteContents="false" description="Delete resource &apos;HibernateJavaBrains&apos;" element1="/HibernateJavaBrains" flags="7" id="org.eclipse.ltk.core.refactoring.delete.resources" resources="1" stamp="1468354087355"/>
</session>